<?xml version="1.0" encoding="utf-8"?>
<!-- Generator: Adobe Illustrator 19.0.0, SVG Export Plug-In . SVG Version: 6.00 Build 0)  -->
<svg version="1.1" id="Layer_1" xmlns="http://www.w3.org/2000/svg" xmlns:xlink="http://www.w3.org/1999/xlink" x="0px" y="0px"
	 viewBox="0 0 500 500" style="enable-background:new 0 0 500 500;" xml:space="preserve">
<style type="text/css">
	.st0{fill:#008CC1;}
	.st1{fill:#FFFFFF;}
	.st2{fill:#66B245;}
</style>
<g id="XMLID_1_">
	<path id="XMLID_3_" class="st0" d="M395.9,233.2c0,84.8-68.7,153.5-153.5,153.5S88.9,317.9,88.9,233.2
		c0-84.8,68.7-153.5,153.5-153.5C327.2,79.6,395.9,148.4,395.9,233.2"/>
	<path id="XMLID_4_" class="st1" d="M156.9,182.8c0,6.8-5.5,12.3-12.3,12.3c-6.8,0-12.3-5.5-12.3-12.3c0-6.8,5.5-12.3,12.3-12.3
		C151.5,170.5,156.9,176,156.9,182.8"/>
	<path id="XMLID_5_" class="st1" d="M159,216.5c0,6.8-5.5,12.3-12.3,12.3s-12.3-5.5-12.3-12.3s5.5-12.3,12.3-12.3
		S159,209.7,159,216.5"/>
	<path id="XMLID_6_" class="st1" d="M166.5,252.2c0,6.8-5.5,12.3-12.3,12.3c-6.8,0-12.3-5.5-12.3-12.3c0-6.8,5.5-12.3,12.3-12.3
		C161,239.8,166.5,245.4,166.5,252.2"/>
	<path id="XMLID_7_" class="st1" d="M183.3,284.2c0,6.8-5.5,12.3-12.3,12.3s-12.3-5.5-12.3-12.3c0-6.8,5.5-12.3,12.3-12.3
		C177.8,271.8,183.3,277.3,183.3,284.2"/>
	<path id="XMLID_8_" class="st1" d="M314.8,328.9c0,6.8-5.5,12.3-12.3,12.3c-6.8,0-12.3-5.5-12.3-12.3c0-6.8,5.5-12.3,12.3-12.3
		C309.3,316.6,314.8,322.1,314.8,328.9"/>
	<path id="XMLID_9_" class="st1" d="M337.1,302.5c0,6.8-5.5,12.3-12.3,12.3c-6.8,0-12.3-5.5-12.3-12.3c0-6.8,5.5-12.3,12.3-12.3
		C331.6,290.2,337.1,295.7,337.1,302.5"/>
	<path id="XMLID_10_" class="st1" d="M272.4,115.8c0,6.8-5.5,12.3-12.3,12.3c-6.8,0-12.3-5.5-12.3-12.3s5.5-12.3,12.3-12.3
		C266.9,103.5,272.4,109,272.4,115.8"/>
	<path id="XMLID_11_" class="st1" d="M240.1,104.5c0,6.8-5.5,12.3-12.3,12.3s-12.3-5.5-12.3-12.3c0-6.8,5.5-12.3,12.3-12.3
		S240.1,97.7,240.1,104.5"/>
	<path id="XMLID_12_" class="st2" d="M327.1,114.8c45.2,0,81.8,36.6,81.8,81.8c0,45.2-36.6,81.8-81.8,81.8
		c-45.2,0-81.8-36.6-81.8-81.8C245.3,151.4,281.9,114.8,327.1,114.8"/>
	<path id="XMLID_15_" class="st1" d="M327.1,280.6c-46.3,0-84-37.7-84-84c0-46.3,37.7-84,84-84c46.3,0,84,37.7,84,84
		C411.1,242.9,373.4,280.6,327.1,280.6z M327.1,117c-43.9,0-79.6,35.7-79.6,79.6c0,43.9,35.7,79.6,79.6,79.6s79.6-35.7,79.6-79.6
		C406.7,152.7,371,117,327.1,117z"/>
	<path id="XMLID_16_" class="st2" d="M215,296.4c37,0,66.9,30,66.9,66.9c0,37-30,66.9-66.9,66.9c-37,0-66.9-30-66.9-66.9
		C148.1,326.4,178.1,296.4,215,296.4"/>
	<path id="XMLID_19_" class="st1" d="M215,432.5c-38.1,0-69.1-31-69.1-69.1c0-38.1,31-69.1,69.1-69.1s69.1,31,69.1,69.1
		C284.2,401.5,253.1,432.5,215,432.5z M215,298.6c-35.7,0-64.7,29-64.7,64.7c0,35.7,29,64.7,64.7,64.7c35.7,0,64.7-29,64.7-64.7
		C279.8,327.7,250.7,298.6,215,298.6z"/>
	<path id="XMLID_20_" class="st2" d="M159.9,69.7c24.6,0,44.6,20,44.6,44.6c0,24.6-20,44.6-44.6,44.6c-24.6,0-44.6-20-44.6-44.6
		C115.3,89.7,135.3,69.7,159.9,69.7"/>
	<path id="XMLID_23_" class="st1" d="M159.9,161.1c-25.8,0-46.8-21-46.8-46.8c0-25.8,21-46.8,46.8-46.8c25.8,0,46.8,21,46.8,46.8
		C206.7,140.1,185.7,161.1,159.9,161.1z M159.9,71.9c-23.4,0-42.4,19-42.4,42.4c0,23.4,19,42.4,42.4,42.4c23.4,0,42.4-19,42.4-42.4
		C202.4,90.9,183.3,71.9,159.9,71.9z"/>
</g>
</svg>
